info face="Showcard Gothic" size=78 bold=0 italic=0 charset="" unicode=0 stretchH=100 smooth=1 aa=1 padding=1,1,1,1 spacing=-2,-2
common lineHeight=98 base=72 scaleW=512 scaleH=512 pages=1 packed=0
page id=0 file="PurpleBigText.png"
chars count=97
char id=0     x=440  y=80   width=32   height=65   xoffset=-2   yoffset=8    xadvance=39   page=0    chnl=0 
char id=10    x=0    y=0    width=0    height=0    xoffset=-2   yoffset=0    xadvance=0    page=0    chnl=0 
char id=32    x=0    y=0    width=0    height=0    xoffset=-2   yoffset=0    xadvance=16   page=0    chnl=0 
char id=33    x=73   y=210  width=25   height=64   xoffset=-2   yoffset=11   xadvance=34   page=0    chnl=0 
char id=34    x=96   y=398  width=25   height=30   xoffset=-2   yoffset=11   xadvance=31   page=0    chnl=0 
char id=35    x=416  y=336  width=41   height=50   xoffset=-2   yoffset=17   xadvance=44   page=0    chnl=0 
char id=36    x=326  y=0    width=36   height=72   xoffset=-2   yoffset=6    xadvance=36   page=0    chnl=0 
char id=37    x=240  y=80   width=61   height=66   xoffset=-2   yoffset=9    xadvance=62   page=0    chnl=0 
char id=38    x=98   y=210  width=48   height=64   xoffset=-2   yoffset=11   xadvance=49   page=0    chnl=0 
char id=39    x=494  y=146  width=12   height=30   xoffset=-2   yoffset=11   xadvance=19   page=0    chnl=0 
char id=40    x=107  y=0    width=27   height=79   xoffset=-2   yoffset=2    xadvance=32   page=0    chnl=0 
char id=41    x=0    y=0    width=28   height=80   xoffset=-2   yoffset=1    xadvance=32   page=0    chnl=0 
char id=42    x=63   y=398  width=33   height=33   xoffset=-2   yoffset=12   xadvance=35   page=0    chnl=0 
char id=43    x=28   y=398  width=35   height=34   xoffset=-2   yoffset=27   xadvance=42   page=0    chnl=0 
char id=44    x=494  y=210  width=17   height=29   xoffset=-2   yoffset=57   xadvance=22   page=0    chnl=0 
char id=45    x=227  y=398  width=24   height=15   xoffset=-2   yoffset=45   xadvance=32   page=0    chnl=0 
char id=46    x=208  y=398  width=19   height=17   xoffset=-2   yoffset=58   xadvance=23   page=0    chnl=0 
char id=47    x=289  y=0    width=37   height=72   xoffset=-2   yoffset=7    xadvance=33   page=0    chnl=0 
char id=48    x=337  y=210  width=45   height=63   xoffset=-2   yoffset=11   xadvance=46   page=0    chnl=0 
char id=49    x=0    y=210  width=31   height=64   xoffset=-2   yoffset=9    xadvance=32   page=0    chnl=0 
char id=50    x=273  y=336  width=36   height=62   xoffset=-2   yoffset=11   xadvance=36   page=0    chnl=0 
char id=51    x=360  y=80   width=37   height=65   xoffset=-2   yoffset=9    xadvance=38   page=0    chnl=0 
char id=52    x=309  y=336  width=48   height=62   xoffset=-2   yoffset=11   xadvance=44   page=0    chnl=0 
char id=53    x=257  y=210  width=38   height=63   xoffset=-2   yoffset=11   xadvance=39   page=0    chnl=0 
char id=54    x=31   y=210  width=42   height=64   xoffset=-2   yoffset=10   xadvance=42   page=0    chnl=0 
char id=55    x=295  y=210  width=42   height=63   xoffset=-2   yoffset=11   xadvance=42   page=0    chnl=0 
char id=56    x=397  y=80   width=43   height=65   xoffset=-2   yoffset=9    xadvance=44   page=0    chnl=0 
char id=57    x=163  y=80   width=42   height=66   xoffset=-2   yoffset=9    xadvance=43   page=0    chnl=0 
char id=58    x=457  y=336  width=19   height=44   xoffset=-2   yoffset=31   xadvance=27   page=0    chnl=0 
char id=59    x=490  y=274  width=19   height=55   xoffset=-2   yoffset=31   xadvance=27   page=0    chnl=0 
char id=60    x=476  y=336  width=28   height=34   xoffset=-2   yoffset=26   xadvance=32   page=0    chnl=0 
char id=61    x=121  y=398  width=31   height=26   xoffset=-2   yoffset=31   xadvance=39   page=0    chnl=0 
char id=62    x=0    y=398  width=28   height=34   xoffset=-2   yoffset=26   xadvance=32   page=0    chnl=0 
char id=63    x=205  y=80   width=35   height=66   xoffset=-2   yoffset=9    xadvance=39   page=0    chnl=0 
char id=64    x=357  y=336  width=59   height=59   xoffset=-2   yoffset=13   xadvance=58   page=0    chnl=0 
char id=65    x=0    y=146  width=51   height=64   xoffset=-2   yoffset=11   xadvance=48   page=0    chnl=0 
char id=66    x=416  y=0    width=53   height=66   xoffset=-2   yoffset=9    xadvance=52   page=0    chnl=0 
char id=67    x=51   y=146  width=45   height=64   xoffset=-2   yoffset=11   xadvance=46   page=0    chnl=0 
char id=68    x=0    y=80   width=55   height=66   xoffset=-2   yoffset=9    xadvance=54   page=0    chnl=0 
char id=69    x=382  y=210  width=42   height=62   xoffset=-2   yoffset=11   xadvance=43   page=0    chnl=0 
char id=70    x=424  y=210  width=42   height=62   xoffset=-2   yoffset=11   xadvance=43   page=0    chnl=0 
char id=71    x=96   y=146  width=53   height=64   xoffset=-2   yoffset=11   xadvance=53   page=0    chnl=0 
char id=72    x=0    y=274  width=61   height=62   xoffset=-2   yoffset=11   xadvance=61   page=0    chnl=0 
char id=73    x=466  y=210  width=28   height=62   xoffset=-2   yoffset=11   xadvance=28   page=0    chnl=0 
char id=74    x=472  y=80   width=34   height=64   xoffset=-2   yoffset=11   xadvance=35   page=0    chnl=0 
char id=75    x=301  y=80   width=59   height=65   xoffset=-2   yoffset=11   xadvance=57   page=0    chnl=0 
char id=76    x=61   y=274  width=41   height=62   xoffset=-2   yoffset=11   xadvance=41   page=0    chnl=0 
char id=77    x=146  y=210  width=63   height=63   xoffset=-2   yoffset=11   xadvance=62   page=0    chnl=0 
char id=78    x=209  y=210  width=48   height=63   xoffset=-2   yoffset=11   xadvance=49   page=0    chnl=0 
char id=79    x=55   y=80   width=55   height=66   xoffset=-2   yoffset=9    xadvance=54   page=0    chnl=0 
char id=80    x=149  y=146  width=53   height=64   xoffset=-2   yoffset=9    xadvance=52   page=0    chnl=0 
char id=81    x=198  y=0    width=55   height=77   xoffset=-2   yoffset=9    xadvance=54   page=0    chnl=0 
char id=82    x=362  y=0    width=54   height=68   xoffset=-2   yoffset=9    xadvance=53   page=0    chnl=0 
char id=83    x=469  y=0    width=39   height=66   xoffset=-2   yoffset=9    xadvance=39   page=0    chnl=0 
char id=84    x=102  y=274  width=49   height=62   xoffset=-2   yoffset=11   xadvance=49   page=0    chnl=0 
char id=85    x=202  y=146  width=56   height=64   xoffset=-2   yoffset=11   xadvance=55   page=0    chnl=0 
char id=86    x=151  y=274  width=52   height=62   xoffset=-2   yoffset=11   xadvance=50   page=0    chnl=0 
char id=87    x=203  y=274  width=82   height=62   xoffset=-2   yoffset=11   xadvance=80   page=0    chnl=0 
char id=88    x=285  y=274  width=59   height=62   xoffset=-2   yoffset=11   xadvance=57   page=0    chnl=0 
char id=89    x=344  y=274  width=56   height=62   xoffset=-2   yoffset=11   xadvance=55   page=0    chnl=0 
char id=90    x=400  y=274  width=48   height=62   xoffset=-2   yoffset=11   xadvance=49   page=0    chnl=0 
char id=91    x=134  y=0    width=32   height=78   xoffset=-2   yoffset=3    xadvance=33   page=0    chnl=0 
char id=92    x=253  y=0    width=36   height=73   xoffset=-2   yoffset=6    xadvance=33   page=0    chnl=0 
char id=93    x=166  y=0    width=32   height=78   xoffset=-2   yoffset=3    xadvance=33   page=0    chnl=0 
char id=94    x=152  y=398  width=33   height=22   xoffset=-2   yoffset=30   xadvance=49   page=0    chnl=0 
char id=95    x=292  y=398  width=42   height=11   xoffset=-2   yoffset=74   xadvance=39   page=0    chnl=0 
char id=96    x=185  y=398  width=23   height=19   xoffset=-2   yoffset=-7   xadvance=49   page=0    chnl=0 
char id=97    x=258  y=146  width=51   height=64   xoffset=-2   yoffset=11   xadvance=48   page=0    chnl=0 
char id=98    x=110  y=80   width=53   height=66   xoffset=-2   yoffset=9    xadvance=52   page=0    chnl=0 
char id=99    x=309  y=146  width=45   height=64   xoffset=-2   yoffset=11   xadvance=46   page=0    chnl=0 
char id=100   x=0    y=80   width=55   height=66   xoffset=-2   yoffset=9    xadvance=54   page=0    chnl=0 
char id=101   x=448  y=274  width=42   height=62   xoffset=-2   yoffset=11   xadvance=43   page=0    chnl=0 
char id=102   x=0    y=336  width=42   height=62   xoffset=-2   yoffset=11   xadvance=43   page=0    chnl=0 
char id=103   x=354  y=146  width=53   height=64   xoffset=-2   yoffset=11   xadvance=53   page=0    chnl=0 
char id=104   x=42   y=336  width=61   height=62   xoffset=-2   yoffset=11   xadvance=61   page=0    chnl=0 
char id=105   x=103  y=336  width=28   height=62   xoffset=-2   yoffset=11   xadvance=28   page=0    chnl=0 
char id=106   x=407  y=146  width=34   height=64   xoffset=-2   yoffset=11   xadvance=35   page=0    chnl=0 
char id=107   x=301  y=80   width=59   height=65   xoffset=-2   yoffset=11   xadvance=57   page=0    chnl=0 
char id=108   x=131  y=336  width=41   height=62   xoffset=-2   yoffset=11   xadvance=41   page=0    chnl=0 
char id=109   x=146  y=210  width=63   height=63   xoffset=-2   yoffset=11   xadvance=62   page=0    chnl=0 
char id=110   x=209  y=210  width=48   height=63   xoffset=-2   yoffset=11   xadvance=49   page=0    chnl=0 
char id=111   x=55   y=80   width=55   height=66   xoffset=-2   yoffset=9    xadvance=54   page=0    chnl=0 
char id=112   x=441  y=146  width=53   height=64   xoffset=-2   yoffset=9    xadvance=52   page=0    chnl=0 
char id=113   x=198  y=0    width=55   height=77   xoffset=-2   yoffset=9    xadvance=54   page=0    chnl=0 
char id=114   x=362  y=0    width=54   height=68   xoffset=-2   yoffset=9    xadvance=53   page=0    chnl=0 
char id=115   x=469  y=0    width=39   height=66   xoffset=-2   yoffset=9    xadvance=39   page=0    chnl=0 
char id=116   x=172  y=336  width=49   height=62   xoffset=-2   yoffset=11   xadvance=49   page=0    chnl=0 
char id=117   x=202  y=146  width=56   height=64   xoffset=-2   yoffset=11   xadvance=55   page=0    chnl=0 
char id=118   x=221  y=336  width=52   height=62   xoffset=-2   yoffset=11   xadvance=50   page=0    chnl=0 
char id=119   x=203  y=274  width=82   height=62   xoffset=-2   yoffset=11   xadvance=80   page=0    chnl=0 
char id=120   x=285  y=274  width=59   height=62   xoffset=-2   yoffset=11   xadvance=57   page=0    chnl=0 
char id=121   x=344  y=274  width=56   height=62   xoffset=-2   yoffset=11   xadvance=55   page=0    chnl=0 
char id=122   x=400  y=274  width=48   height=62   xoffset=-2   yoffset=11   xadvance=49   page=0    chnl=0 
char id=123   x=28   y=0    width=32   height=80   xoffset=-2   yoffset=2    xadvance=33   page=0    chnl=0 
char id=124   x=91   y=0    width=16   height=80   xoffset=-2   yoffset=2    xadvance=16   page=0    chnl=0 
char id=125   x=60   y=0    width=31   height=80   xoffset=-2   yoffset=2    xadvance=33   page=0    chnl=0 
char id=126   x=251  y=398  width=41   height=14   xoffset=-2   yoffset=37   xadvance=49   page=0    chnl=0 
kernings count=0
